[
  {
  "id":1,
  "name":"McDonalds",
  "image":"http://www.capitalstore.com.ua/images/small-logos/Mcdonalds-logo-100x100.jpg",
  "icon":"http://seo.nlx.org/mcdonalds.jobs/favicon.ico",
  "lat":55.828566,
  "lon":37.637857
  },
  {
  "id":2,
  "name":"BurgerKing",
  "image":"http://assets.bprum.ru/uploads/company/789008/logo/logo_1393458941________________.jpg",
  "icon":"http://burgerking.ru/favicon.ico",
  "lat":55.807833,
  "lon":37.639144
  },
  {
  "id":3,
  "name":"SubWay",
  "image":"https://media.licdn.com/mpr/mpr/shrink_100_100/p/7/000/256/303/356dc3f.png",
  "icon":"http://subway.ru/images/favicon.ico",
  "lat":55.837472,
  "lon":37.636343
  },
  {
  "id":4,
  "name":"KFC",
  "image":"https://yt3.ggpht.com/-6Y6Fcw0DjUc/AAAAAAAAAAI/AAAAAAAAAAA/M7QLr_VNd7c/s100-c-k-no-rj-c0xffffff/photo.jpg",
  "icon":"http://www.kfc.ru/assets/img/desktop/favicon.ico",
  "lat":55.824445,
  "lon":37.635134
  },
  {
  "id":5,
  "name":"Coffee Bean",
  "image":"http://www.ka-fi.com/chain/cbtl/logo.png",
  "icon":"http://www.coffeebean.ru/templates/yoo_daylight/favicon.ico",
  "lat":55.837385,
  "lon":37.636383
  },
  {
  "id":6,
  "name":"Теремок",
  "image":"http://uploads.foodik.ru/store_image/image/3790/homepage/Ter_mok.jpg?1334773862",
  "icon":"http://www.teremok.ru/favicon.ico?new_icon",
  "lat":55.826352,
  "lon":37.637614
  },
  {
  "id":7,
  "name":"Пян-Се",
  "image":"http://cs322521.vk.me/v322521754/9bf7/QT2DIUyp2tg.jpg",
  "icon":"http://pyan-se.ru/images/favicon.ico?468993570",
  "lat":55.826351,
  "lon":37.637615
  },
  {
  "id":8,
  "name":"Пафф Поинт",
  "image":"http://lamcdn.net/the-village.ru/post-image/qlLa7DcEK_z5AVhLsyquoA-thumbnail.jpg",
  "icon":"http://pyan-se.ru/images/favicon.ico?468993570",
  "lat":55.826353,
  "lon":37.637615
  },
  {
  "id":9,
  "name":"Те самые пончики",
  "image":"https://yt3.ggpht.com/-yKT7NgCXHb0/AAAAAAAAAAI/AAAAAAAAAAA/b6sjLF4AmLw/s100-c-k-no-rj-c0xffffff/photo.jpg",
  "icon":"http://pyan-se.ru/images/favicon.ico?468993570",
  "lat":55.826353,
  "lon":37.637612
  },
  {
  "id":10,
  "name":"Крымский чебурек",
  "image":"http://st03.kakprosto.ru/tumb/100x100/images/article/2016/2/29/167268_56d3aa742774656d3aa742777d.jpeg",
  "icon":"http://pyan-se.ru/images/favicon.ico?468993570",
  "lat":55.826353,
  "lon":37.637613
  }
]
